{
  "project_info": {
    "project_number": "352062213218",
    "project_id": "projectexample-31626",
    "storage_bucket": "projectexample-31626.appspot.com"
  },
  "client": [
    {
      "client_info": {
        "mobilesdk_app_id": "1:352062213218:android:427213203ab5c8f919953b",
        "android_client_info": {
          "package_name": "com.phoptham.flutter_authen"
        }
      },
      "oauth_client": [
        {
          "client_id": "352062213218-vrc8bkfsujv800mvsgqe8m2dmfambfv9.apps.googleusercontent.com",
          "client_type": 1,
          "android_info": {
            "package_name": "com.phoptham.flutter_authen",
            "certificate_hash": "ca59b7acc1c3b1ad0e8926062274577d3701a6ab"
          }
        },
        {
          "client_id": "352062213218-djhsg3rndjqvjdic78dbfrns6kcc6csi.apps.googleusercontent.com",
          "client_type": 3
        }
      ],
      "api_key": [
        {
          "current_key": "AIzaSyD0h-TBrdElGlEg8eADtOsTL-e0UUzqlfs"
        }
      ],
      "services": {
        "appinvite_service": {
          "other_platform_oauth_client": [
            {
              "client_id": "352062213218-djhsg3rndjqvjdic78dbfrns6kcc6csi.apps.googleusercontent.com",
              "client_type": 3
            }
          ]
        }
      }
    }
  ],
  "configuration_version": "1"
}